Spot Rate Curve Interpolation
…
refdate <- getdate("last bizday", Sys.Date() - 1, "Brazil/ANBIMA")

In order to build a term structure formed only by futures maturities, the yield curve data and futures data have to be mixed and this is done with the rb3::yc_superset function. Once the superset is returned, the rows related to futures maturities can be filtered. The first term, usually 1 business day term, is also used to anchor the curve’s short part.

yc_ <- yc_get(refdate)
fut_ <- futures_get(refdate)
yc_ss <- yc_superset(yc_, fut_)
yc <- bind_rows(
  yc_ss |> slice(1),
  yc_ss |> filter(!is.na(symbol))
)

yc
#> # A tibble: 39 x 7
#>    refdate    cur_days biz_days forward_date r_252 r_360 symbol
#>    <date>        <int>    <dbl> <date>       <dbl> <dbl> <chr> 
#>  1 2022-07-13        1        1 2022-07-14   0.132 0     <NA>  
#>  2 2022-07-13       19       13 2022-08-01   0.132 0.128 DI1Q22
#>  3 2022-07-13       50       36 2022-09-01   0.134 0.138 DI1U22
#>  4 2022-07-13       82       57 2022-10-03   0.135 0.134 DI1V22
#>  5 2022-07-13      111       77 2022-11-01   0.137 0.135 DI1X22
#>  6 2022-07-13      141       97 2022-12-01   0.138 0.135 DI1Z22
#>  7 2022-07-13      173      119 2023-01-02   0.139 0.136 DI1F23
#>  8 2022-07-13      203      141 2023-02-01   0.139 0.138 DI1G23
#>  9 2022-07-13      231      159 2023-03-01   0.140 0.137 DI1H23
#> 10 2022-07-13      264      182 2023-04-03   0.140 0.138 DI1J23
#> # ... with 29 more rows
…
